{
	"info": {
		"_postman_id": "0b186d82-d926-4a75-a5ff-ba2f95f78ee5",
		"name": "Employee",
		"schema": "https://schema.getpostman.com/json/collection/v2.1.0/collection.json",
		"_exporter_id": "21169320"
	},
	"item": [
		{
			"name": "display emp by name",
			"protocolProfileBehavior": {
				"disableBodyPruning": true
			},
			"request": {
				"method": "GET",
				"header": [],
				"body": {
					"mode": "raw",
					"raw": "{\r\n    \"emp_name\":\"Ajay Pathak\"\r\n}",
					"options": {
						"raw": {
							"language": "json"
						}
					}
				},
				"url": {
					"raw": "{{url}}/showemp",
					"host": [
						"{{url}}"
					],
					"path": [
						"showemp"
					]
				}
			},
			"response": []
		},
		{
			"name": "adding employee",
			"request": {
				"method": "POST",
				"header": [],
				"body": {
					"mode": "raw",
					"raw": "{\r\n    \"emp_name\":\"Ajay Pathak\",\r\n    \"emp_Address\":\"Agra\",\r\n    \"emp_Email\":\"ajay@gmail.com\",\r\n    \"emp_MobileNo\":\"9808825038\",\r\n    \"emp_DOB\": \"1996/11/16\",\r\n    \"emp_JoiningDate\":\"2022/11/16\"\r\n}",
					"options": {
						"raw": {
							"language": "json"
						}
					}
				},
				"url": {
					"raw": "{{url}}/addemp",
					"host": [
						"{{url}}"
					],
					"path": [
						"addemp"
					]
				}
			},
			"response": []
		},
		{
			"name": "Update emp",
			"request": {
				"method": "PUT",
				"header": [],
				"body": {
					"mode": "raw",
					"raw": "{\r\n    \"emp_name\":\"Ajay Pathak\",\r\n    \"emp_Address\":\"Noida\",\r\n    \"emp_Email\":\"ajay@gmail.com\",\r\n    \"emp_MobileNo\":\"9808825038\",\r\n    \"emp_DOB\": \"1996/11/16\",\r\n    \"emp_JoiningDate\":\"2022/11/16\"\r\n}",
					"options": {
						"raw": {
							"language": "json"
						}
					}
				},
				"url": {
					"raw": "{{url}}/updateemp",
					"host": [
						"{{url}}"
					],
					"path": [
						"updateemp"
					]
				}
			},
			"response": []
		},
		{
			"name": "Delete emp by name",
			"request": {
				"method": "DELETE",
				"header": [],
				"body": {
					"mode": "raw",
					"raw": "{\r\n    \"emp_name\":\"Ajay Pathak\"\r\n}",
					"options": {
						"raw": {
							"language": "json"
						}
					}
				},
				"url": {
					"raw": "{{url}}/deleteemp",
					"host": [
						"{{url}}"
					],
					"path": [
						"deleteemp"
					]
				}
			},
			"response": []
		}
	],
	"event": [
		{
			"listen": "prerequest",
			"script": {
				"type": "text/javascript",
				"exec": [
					""
				]
			}
		},
		{
			"listen": "test",
			"script": {
				"type": "text/javascript",
				"exec": [
					""
				]
			}
		}
	],
	"variable": [
		{
			"key": "url",
			"value": "http://localhost:4000",
			"type": "string"
		}
	]
}